%YAML 1.1
%TAG !u! tag:unity3d.com,2011:
--- !u!1 &118350
GameObject:
  m_ObjectHideFlags: 0
  m_CorrespondingSourceObject: {fileID: 0}
  m_PrefabInstance: {fileID: 0}
  m_PrefabAsset: {fileID: 0}
  serializedVersion: 6
  m_Component:
  - component: {fileID: 413584}
  - component: {fileID: 21217902}
  - component: {fileID: 5014202}
  - component: {fileID: 11456902}
  - component: {fileID: 11452532}
  - component: {fileID: 6000108}
  m_Layer: 10
  m_Name: TriangleHole
  m_TagString: Triangle
  m_Icon: {fileID: 0}
  m_NavMeshLayer: 0
  m_StaticEditorFlags: 0
  m_IsActive: 1
--- !u!4 &413584
Transform:
  m_ObjectHideFlags: 0
  m_CorrespondingSourceObject: {fileID: 0}
  m_PrefabInstance: {fileID: 0}
  m_PrefabAsset: {fileID: 0}
  m_GameObject: {fileID: 118350}
  m_LocalRotation: {x: 0, y: 0, z: 0, w: 1}
  m_LocalPosition: {x: 0, y: 0, z: -5}
  m_LocalScale: {x: 1, y: 1, z: 1}
  m_Children: []
  m_Father: {fileID: 0}
  m_RootOrder: 0
  m_LocalEulerAnglesHint: {x: 0, y: 0, z: 0}
--- !u!212 &21217902
SpriteRenderer:
  m_ObjectHideFlags: 0
  m_CorrespondingSourceObject: {fileID: 0}
  m_PrefabInstance: {fileID: 0}
  m_PrefabAsset: {fileID: 0}
  m_GameObject: {fileID: 118350}
  m_Enabled: 1
  m_CastShadows: 0
  m_ReceiveShadows: 0
  m_DynamicOccludee: 1
  m_MotionVectors: 1
  m_LightProbeUsage: 0
  m_ReflectionProbeUsage: 1
  m_RayTracingMode: 0
  m_RenderingLayerMask: 1
  m_RendererPriority: 0
  m_Materials:
  - {fileID: 10754, guid: 0000000000000000f000000000000000, type: 0}
  m_StaticBatchInfo:
    firstSubMesh: 0
    subMeshCount: 0
  m_StaticBatchRoot: {fileID: 0}
  m_ProbeAnchor: {fileID: 0}
  m_LightProbeVolumeOverride: {fileID: 0}
  m_ScaleInLightmap: 1
  m_ReceiveGI: 1
  m_PreserveUVs: 0
  m_IgnoreNormalsForChartDetection: 0
  m_ImportantGI: 0
  m_StitchLightmapSeams: 1
  m_SelectedEditorRenderState: 0
  m_MinimumChartSize: 4
  m_AutoUVMaxDistance: 0.5
  m_AutoUVMaxAngle: 89
  m_LightmapParameters: {fileID: 0}
  m_SortingLayerID: 0
  m_SortingLayer: 0
  m_SortingOrder: 0
  m_Sprite: {fileID: 21300082, guid: 3a58c58e8a1d8472db7abac811c76ccc, type: 3}
  m_Color: {r: 1, g: 1, b: 1, a: 1}
  m_FlipX: 0
  m_FlipY: 0
  m_DrawMode: 0
  m_Size: {x: 1, y: 1}
  m_AdaptiveModeThreshold: 0.5
  m_SpriteTileMode: 0
  m_WasSpriteAssigned: 1
  m_MaskInteraction: 0
  m_SpriteSortPoint: 0
--- !u!50 &5014202
Rigidbody2D:
  serializedVersion: 4
  m_ObjectHideFlags: 0
  m_CorrespondingSourceObject: {fileID: 0}
  m_PrefabInstance: {fileID: 0}
  m_PrefabAsset: {fileID: 0}
  m_GameObject: {fileID: 118350}
  m_BodyType: 0
  m_Simulated: 1
  m_UseFullKinematicContacts: 0
  m_UseAutoMass: 0
  m_Mass: 1.5
  m_LinearDrag: 1
  m_AngularDrag: 0.05
  m_GravityScale: 0.5
  m_Material: {fileID: 0}
  m_Interpolate: 0
  m_SleepingMode: 1
  m_CollisionDetection: 0
  m_Constraints: 0
--- !u!114 &11456902
MonoBehaviour:
  m_ObjectHideFlags: 0
  m_CorrespondingSourceObject: {fileID: 0}
  m_PrefabInstance: {fileID: 0}
  m_PrefabAsset: {fileID: 0}
  m_GameObject: {fileID: 118350}
  m_Enabled: 1
  m_EditorHideFlags: 0
  m_Script: {fileID: 11500000, guid: 175a0df2c8fa04f8183e0687f10da674, type: 3}
  m_Name: 
  m_EditorClassIdentifier: 
  _sprites: []
  _life: 7.5
  _timeToDie: 0
  _material: 0
  originMaterial: 
  _damage: 0
  _points: 500
  _woodSprites:
  - {fileID: 21300082, guid: 3a58c58e8a1d8472db7abac811c76ccc, type: 3}
  - {fileID: 21300102, guid: 3a58c58e8a1d8472db7abac811c76ccc, type: 3}
  - {fileID: 21300122, guid: 3a58c58e8a1d8472db7abac811c76ccc, type: 3}
  - {fileID: 21300142, guid: 3a58c58e8a1d8472db7abac811c76ccc, type: 3}
  _stoneSprites:
  - {fileID: 21300012, guid: 3a58c58e8a1d8472db7abac811c76ccc, type: 3}
  - {fileID: 21300014, guid: 3a58c58e8a1d8472db7abac811c76ccc, type: 3}
  - {fileID: 21300016, guid: 3a58c58e8a1d8472db7abac811c76ccc, type: 3}
  - {fileID: 21300018, guid: 3a58c58e8a1d8472db7abac811c76ccc, type: 3}
  _iceSprites:
  - {fileID: 21300080, guid: 3a58c58e8a1d8472db7abac811c76ccc, type: 3}
  - {fileID: 21300100, guid: 3a58c58e8a1d8472db7abac811c76ccc, type: 3}
  - {fileID: 21300120, guid: 3a58c58e8a1d8472db7abac811c76ccc, type: 3}
  - {fileID: 21300140, guid: 3a58c58e8a1d8472db7abac811c76ccc, type: 3}
--- !u!114 &11452532
MonoBehaviour:
  m_ObjectHideFlags: 0
  m_CorrespondingSourceObject: {fileID: 0}
  m_PrefabInstance: {fileID: 0}
  m_PrefabAsset: {fileID: 0}
  m_GameObject: {fileID: 118350}
  m_Enabled: 1
  m_EditorHideFlags: 0
  m_Script: {fileID: 11500000, guid: 1496dfd57e5ea402e9851887ca688cd3, type: 3}
  m_Name: 
  m_EditorClassIdentifier: 
  _minVel: 4
  _maxVel: 5
  _minAngle: 0
  _maxAngle: 200
  _minMass: 0.5
  _maxMass: 0.65
  _minLifetime: 0.45
  _maxLifetime: 0.5
  _systemLifetime: 0.5
  _shootingRate: 0.1
  _addNoise: 1
  _applyGravity: 1
  _shootParticles: 0
  _particleSprites:
  - {fileID: 114686, guid: 93d80a2cf052c442e838c6c966340dcf, type: 3}
--- !u!60 &6000108
PolygonCollider2D:
  m_ObjectHideFlags: 0
  m_CorrespondingSourceObject: {fileID: 0}
  m_PrefabInstance: {fileID: 0}
  m_PrefabAsset: {fileID: 0}
  m_GameObject: {fileID: 118350}
  m_Enabled: 1
  m_Density: 1
  m_Material: {fileID: 0}
  m_IsTrigger: 0
  m_UsedByEffector: 0
  m_UsedByComposite: 0
  m_Offset: {x: 0, y: 0}
  m_SpriteTilingProperty:
    border: {x: 0, y: 0, z: 0, w: 0}
    pivot: {x: 0.5, y: 0.5}
    oldSize: {x: 0.84, y: 0.84}
    newSize: {x: 1, y: 1}
    adaptiveTilingThreshold: 0.5
    drawMode: 0
    adaptiveTiling: 0
  m_AutoTiling: 0
  m_Points:
    m_Paths:
    - - {x: -0.04, y: 0.42}
      - {x: -0.42, y: -0.26}
      - {x: -0.42, y: -0.42}
      - {x: 0.42, y: -0.42}
      - {x: 0.42, y: -0.26999998}
      - {x: 0.04, y: 0.42}
    - - {x: 0.012897618, y: 0.117324226}
      - {x: 0.12962931, y: -0.19109209}
      - {x: 0.12934658, y: -0.1828874}
      - {x: -0.119346425, y: -0.18288736}
